"서비스구분","서비스ID","대분류명","소분류명","서비스상태","서비스명","결제방법","장소명","서비스대상","바로가기URL","장소X좌표","장소Y좌표","서비스개시시작일시","서비스개시종료일시","접수시작일시","접수종료일시","지역명"
"자체","S191229100140449342","교육","자연/과학","접수중","길동생태공원 입장예약(2020년)","무료","길동생태공원","제한없음(누구나)","http://yeyak.seoul.go.kr/reservation/view.web?rsvsvcid=S191229100140449342","","","2019-12-31 00:00:00.0","2020-12-31 00:00:00.0","2019-12-31 00:00:00.0","2020-12-31 16:00:00.0","강동구"
"자체","S200102094603139537","교육","체험/견학","접수중","암사아리수정수센터 견학예약 서비스","무료","암사아리수정수센터","제한없음","http://yeyak.seoul.go.kr/reservation/view.web?rsvsvcid=S200102094603139537","","","2020-01-14 00:00:00.0","2020-12-31 00:00:00.0","2020-01-14 00:00:00.0","2020-12-31 00:00:00.0","강동구"
"자체","S200319113015265601","교육","도시농업","접수종료","2020년 친환경텃밭농장 참여 어린이 단체 모집","무료","농업기술센터>친환경 농업체험교육장(상일동)","어린이","http://yeyak.seoul.go.kr/reservation/view.web?rsvsvcid=S200319113015265601","","","2020-03-19 00:00:00.0","2020-10-30 00:00:00.0","2020-03-20 10:00:00.0","2020-04-03 18:00:00.0","강동구"
"자체","S200511164121036474","교육","자연/과학","접수중","고덕) 단체탐방 생태교실 (6세이상)","무료","광나루한강공원>고덕수변생태공원","어린이(초등이상)6세이상","http://yeyak.seoul.go.kr/reservation/view.web?rsvsvcid=S200511164121036474","","","2020-05-16 00:00:00.0","2020-12-30 00:00:00.0","2020-05-16 00:00:00.0","2020-12-29 23:00:00.0","강동구"
"자체","S200523104222859497","교육","자연/과학","접수중","고덕)(토) 다양한 생물을 찾아라! (초등이상)","무료","광나루한강공원>고덕수변생태공원","가족","http://yeyak.seoul.go.kr/reservation/view.web?rsvsvcid=S200523104222859497","","","2020-05-25 00:00:00.0","2020-06-30 00:00:00.0","2020-05-25 00:00:00.0","2020-06-29 00:00:00.0","강동구"
"자체","S200523105443246745","교육","자연/과학","접수중","고덕)(일) 맛있는 열매이야기 (초등이상)","무료","광나루한강공원>고덕수변생태공원","어린이(초등이상)","http://yeyak.seoul.go.kr/reservation/view.web?rsvsvcid=S200523105443246745","","","2020-05-25 00:00:00.0","2020-06-30 00:00:00.0","2020-05-25 00:00:00.0","2020-06-29 23:00:00.0","강동구"
"자체","S200523140602578702","교육","자연/과학","접수중","고덕)(토) 꼬물꼬물 지렁이교실 (초등이상)","무료","광나루한강공원>고덕수변생태공원","어린이(초등이상)","http://yeyak.seoul.go.kr/reservation/view.web?rsvsvcid=S200523140602578702","","","2020-06-01 00:00:00.0","2020-06-30 00:00:00.0","2020-06-01 00:00:00.0","2020-06-29 23:00:00.0","강동구"
"자체","S200523140941137971","교육","자연/과학","접수중","고덕)(토) 꼬물꼬물 지렁이교실 (초등이상)","무료","광나루한강공원>고덕수변생태공원","어린이(초등이상)","http://yeyak.seoul.go.kr/reservation/view.web?rsvsvcid=S200523140941137971","","","2020-06-01 00:00:00.0","2020-06-30 00:00:00.0","2020-06-01 00:00:00.0","2020-06-29 23:00:00.0","강동구"
"자체","S200523141414955136","교육","자연/과학","접수중","고덕)(일) 시원하겠다 물속생물 (초등이상)","무료","광나루한강공원>고덕수변생태공원","어린이(초등이상)","http://yeyak.seoul.go.kr/reservation/view.web?rsvsvcid=S200523141414955136","","","2020-06-01 00:00:00.0","2020-06-30 00:00:00.0","2020-06-01 00:00:00.0","2020-06-29 23:00:00.0","강동구"
"자체","S200523143431255298","교육","체험/견학","접수중","6월 강동 일자산 치유의 숲길 운영","무료","일자산 치유의 숲길","성인장애인주부어르신","http://yeyak.seoul.go.kr/reservation/view.web?rsvsvcid=S200523143431255298","37.53205050398048","127.15073370751452","2020-05-23 00:00:00.0","2020-06-30 00:00:00.0","2020-05-24 00:00:00.0","2020-06-20 13:00:00.0","강동구"
"자체","S200525120402906365","교육","자연/과학","접수중","암사 생태탐방","무료","광나루한강공원>암사생태공원","제한없음","http://yeyak.seoul.go.kr/reservation/view.web?rsvsvcid=S200525120402906365","37.54996645867258","127.12224993918046","2020-05-25 00:00:00.0","2020-06-30 00:00:00.0","2020-05-25 00:00:00.0","2020-06-28 00:00:00.0","강동구"
"자체","S200527081249804959","교육","자연/과학","접수중","강동구 숲해설 프로그램(일자산: 월화수목금 토 일/명일: 월수금토일)","무료","일자산 치유의 숲길","청소년성인장애인주부제한없음어린이","http://yeyak.seoul.go.kr/reservation/view.web?rsvsvcid=S200527081249804959","37.53205050398048","127.15073370751452","2020-05-27 00:00:00.0","2020-06-30 00:00:00.0","2020-05-27 10:00:00.0","2020-06-25 17:00:00.0","강동구"
"자체","S200608150221205301","교육","자연/과학","접수중","(토)행복한 숲밧줄놀이&자연미술","무료","길동생태공원","가족","http://yeyak.seoul.go.kr/reservation/view.web?rsvsvcid=S200608150221205301","","","2020-06-08 00:00:00.0","2020-06-27 00:00:00.0","2020-06-08 16:00:00.0","2020-06-27 00:00:00.0","강동구"
"자체","S200608153248308809","교육","자연/과학","접수중","(화)열두달 자연에서 놀자(쪽 염색)","유료","길동생태공원","어린이(7세이상+보호자)","http://yeyak.seoul.go.kr/reservation/view.web?rsvsvcid=S200608153248308809","","","2020-06-08 00:00:00.0","2020-06-30 00:00:00.0","2020-06-08 16:00:00.0","2020-06-30 00:00:00.0","강동구"
"자체","S200608155014694735","교육","자연/과학","접수중","(목)유아생태학교","무료","길동생태공원","어린이(5~7세 어린이집 단체)","http://yeyak.seoul.go.kr/reservation/view.web?rsvsvcid=S200608155014694735","","","2020-06-08 00:00:00.0","2020-06-25 00:00:00.0","2020-06-08 16:00:00.0","2020-06-25 00:00:00.0","강동구"
"연계","XML-21494746","교육","건강/스포츠","안내중","강습 19C","유료","샘터배드민턴장","성인","http://online.igangdong.or.kr/lecture/programlist_detail.asp?s_item=138&itemid=2488","","","2020-06-01 00:00:00.0","2020-06-30 00:00:00.0","2020-05-26 00:00:00.0","2020-05-31 00:00:00.0","강동구"
"연계","XML-21494745","교육","건강/스포츠","안내중","강습 16C","유료","샘터배드민턴장","성인","http://online.igangdong.or.kr/lecture/programlist_detail.asp?s_item=138&itemid=2487","","","2020-06-01 00:00:00.0","2020-06-30 00:00:00.0","2020-05-26 00:00:00.0","2020-05-31 00:00:00.0","강동구"
"연계","XML-21494744","교육","건강/스포츠","안내중","강습 13B","유료","샘터배드민턴장","성인","http://online.igangdong.or.kr/lecture/programlist_detail.asp?s_item=138&itemid=2486","","","2020-06-01 00:00:00.0","2020-06-30 00:00:00.0","2020-05-26 00:00:00.0","2020-05-31 00:00:00.0","강동구"
"연계","XML-21494743","교육","건강/스포츠","안내중","강습 6C","유료","샘터배드민턴장","성인","http://online.igangdong.or.kr/lecture/programlist_detail.asp?s_item=138&itemid=2485","","","2020-06-01 00:00:00.0","2020-06-30 00:00:00.0","2020-05-26 00:00:00.0","2020-05-31 00:00:00.0","강동구"
"연계","XML-21494677","교육","건강/스포츠","안내중","임시정기권","유료","샘터배드민턴장","성인","http://online.igangdong.or.kr/lecture/programlist_detail.asp?s_item=138&itemid=2432","","","2020-06-01 00:00:00.0","2020-06-30 00:00:00.0","2020-05-26 00:00:00.0","2020-05-31 00:00:00.0","강동구"
"연계","XML-21494674","교육","건강/스포츠","안내중","강습 10C","유료","샘터배드민턴장","성인","http://online.igangdong.or.kr/lecture/programlist_detail.asp?s_item=138&itemid=2232","","","2020-06-01 00:00:00.0","2020-06-30 00:00:00.0","2020-05-26 00:00:00.0","2020-05-31 00:00:00.0","강동구"
"연계","XML-21494673","교육","건강/스포츠","안내중","월정기(강습)-5부","유료","샘터배드민턴장","성인","http://online.igangdong.or.kr/lecture/programlist_detail.asp?s_item=138&itemid=2034","","","2020-06-01 00:00:00.0","2020-06-30 00:00:00.0","2020-05-26 00:00:00.0","2020-05-31 00:00:00.0","강동구"
"연계","XML-21494672","교육","건강/스포츠","안내중","월정기(강습)-4부","유료","샘터배드민턴장","성인","http://online.igangdong.or.kr/lecture/programlist_detail.asp?s_item=138&itemid=2033","","","2020-06-01 00:00:00.0","2020-06-30 00:00:00.0","2020-05-26 00:00:00.0","2020-05-31 00:00:00.0","강동구"
"연계","XML-21494671","교육","건강/스포츠","안내중","월정기(강습)-3부","유료","샘터배드민턴장","성인","http://online.igangdong.or.kr/lecture/programlist_detail.asp?s_item=138&itemid=2032","","","2020-06-01 00:00:00.0","2020-06-30 00:00:00.0","2020-05-26 00:00:00.0","2020-05-31 00:00:00.0","강동구"
"연계","XML-21494670","교육","건강/스포츠","안내중","월정기(강습)-2부","유료","샘터배드민턴장","성인","http://online.igangdong.or.kr/lecture/programlist_detail.asp?s_item=138&itemid=2031","","","2020-06-01 00:00:00.0","2020-06-30 00:00:00.0","2020-05-26 00:00:00.0","2020-05-31 00:00:00.0","강동구"
"연계","XML-21494669","교육","건강/스포츠","안내중","월정기(강습)-1부","유료","샘터배드민턴장","성인","http://online.igangdong.or.kr/lecture/programlist_detail.asp?s_item=138&itemid=2030","","","2020-06-01 00:00:00.0","2020-06-30 00:00:00.0","2020-05-26 00:00:00.0","2020-05-31 00:00:00.0","강동구"
"연계","XML-21494668","교육","건강/스포츠","안내중","강습 19B","유료","샘터배드민턴장","성인","http://online.igangdong.or.kr/lecture/programlist_detail.asp?s_item=138&itemid=2029","","","2020-06-01 00:00:00.0","2020-06-30 00:00:00.0","2020-05-26 00:00:00.0","2020-05-31 00:00:00.0","강동구"
"연계","XML-21494667","교육","건강/스포츠","안내중","강습 16B","유료","샘터배드민턴장","성인","http://online.igangdong.or.kr/lecture/programlist_detail.asp?s_item=138&itemid=2028","","","2020-06-01 00:00:00.0","2020-06-30 00:00:00.0","2020-05-26 00:00:00.0","2020-05-31 00:00:00.0","강동구"
"연계","XML-21494666","교육","건강/스포츠","안내중","강습 13C","유료","샘터배드민턴장","성인","http://online.igangdong.or.kr/lecture/programlist_detail.asp?s_item=138&itemid=2027","","","2020-06-01 00:00:00.0","2020-06-30 00:00:00.0","2020-05-26 00:00:00.0","2020-05-31 00:00:00.0","강동구"
"연계","XML-21494665","교육","건강/스포츠","안내중","강습 10B","유료","샘터배드민턴장","성인","http://online.igangdong.or.kr/lecture/programlist_detail.asp?s_item=138&itemid=2026","","","2020-06-01 00:00:00.0","2020-06-30 00:00:00.0","2020-05-26 00:00:00.0","2020-05-31 00:00:00.0","강동구"
"연계","XML-21494664","교육","건강/스포츠","안내중","강습 6B","유료","샘터배드민턴장","성인","http://online.igangdong.or.kr/lecture/programlist_detail.asp?s_item=138&itemid=2025","","","2020-06-01 00:00:00.0","2020-06-30 00:00:00.0","2020-05-26 00:00:00.0","2020-05-31 00:00:00.0","강동구"
"연계","XML-21494663","교육","건강/스포츠","안내중","강습 19A","유료","샘터배드민턴장","성인","http://online.igangdong.or.kr/lecture/programlist_detail.asp?s_item=138&itemid=2024","","","2020-06-01 00:00:00.0","2020-06-30 00:00:00.0","2020-05-26 00:00:00.0","2020-05-31 00:00:00.0","강동구"
"연계","XML-21494662","교육","건강/스포츠","안내중","강습 16A","유료","샘터배드민턴장","성인","http://online.igangdong.or.kr/lecture/programlist_detail.asp?s_item=138&itemid=2023","","","2020-06-01 00:00:00.0","2020-06-30 00:00:00.0","2020-05-26 00:00:00.0","2020-05-31 00:00:00.0","강동구"
"연계","XML-21494661","교육","건강/스포츠","안내중","강습 13A","유료","샘터배드민턴장","성인","http://online.igangdong.or.kr/lecture/programlist_detail.asp?s_item=138&itemid=2022","","","2020-06-01 00:00:00.0","2020-06-30 00:00:00.0","2020-05-26 00:00:00.0","2020-05-31 00:00:00.0","강동구"
"연계","XML-21494660","교육","건강/스포츠","안내중","강습 10A","유료","샘터배드민턴장","성인","http://online.igangdong.or.kr/lecture/programlist_detail.asp?s_item=138&itemid=2021","","","2020-06-01 00:00:00.0","2020-06-30 00:00:00.0","2020-05-26 00:00:00.0","2020-05-31 00:00:00.0","강동구"
"연계","XML-21494659","교육","건강/스포츠","안내중","강습 6A","유료","샘터배드민턴장","성인","http://online.igangdong.or.kr/lecture/programlist_detail.asp?s_item=138&itemid=2020","","","2020-06-01 00:00:00.0","2020-06-30 00:00:00.0","2020-05-26 00:00:00.0","2020-05-31 00:00:00.0","강동구"
"연계","XML-21494658","교육","건강/스포츠","안내중","월정기(자유)-5부","유료","샘터배드민턴장","성인","http://online.igangdong.or.kr/lecture/programlist_detail.asp?s_item=138&itemid=2019","","","2020-06-01 00:00:00.0","2020-06-30 00:00:00.0","2020-05-26 00:00:00.0","2020-05-31 00:00:00.0","강동구"
"연계","XML-21494657","교육","건강/스포츠","안내중","월정기(자유)-4부","유료","샘터배드민턴장","성인","http://online.igangdong.or.kr/lecture/programlist_detail.asp?s_item=138&itemid=2018","","","2020-06-01 00:00:00.0","2020-06-30 00:00:00.0","2020-05-26 00:00:00.0","2020-05-31 00:00:00.0","강동구"
"연계","XML-21494656","교육","건강/스포츠","안내중","월정기(자유)-3부","유료","샘터배드민턴장","성인","http://online.igangdong.or.kr/lecture/programlist_detail.asp?s_item=138&itemid=2017","","","2020-06-01 00:00:00.0","2020-06-30 00:00:00.0","2020-05-26 00:00:00.0","2020-05-31 00:00:00.0","강동구"
"연계","XML-21494742","교육","건강/스포츠","안내중","월정기(자유)-2부","유료","샘터배드민턴장","성인","http://online.igangdong.or.kr/lecture/programlist_detail.asp?s_item=138&itemid=2016","","","2020-06-01 00:00:00.0","2020-06-30 00:00:00.0","2020-05-26 00:00:00.0","2020-05-31 00:00:00.0","강동구"
"연계","XML-21494741","교육","건강/스포츠","안내중","월정기(자유)-1부","유료","샘터배드민턴장","성인","http://online.igangdong.or.kr/lecture/programlist_detail.asp?s_item=138&itemid=2015","","","2020-06-01 00:00:00.0","2020-06-30 00:00:00.0","2020-05-26 00:00:00.0","2020-05-31 00:00:00.0","강동구"
"연계","XML-21494740","교육","건강/스포츠","안내중","월정기(클럽)-5부","유료","샘터배드민턴장","성인","http://online.igangdong.or.kr/lecture/programlist_detail.asp?s_item=138&itemid=2014","","","2020-06-01 00:00:00.0","2020-06-30 00:00:00.0","2020-05-26 00:00:00.0","2020-05-31 00:00:00.0","강동구"
"연계","XML-21494739","교육","건강/스포츠","안내중","월정기(클럽)-4부","유료","샘터배드민턴장","성인","http://online.igangdong.or.kr/lecture/programlist_detail.asp?s_item=138&itemid=2013","","","2020-06-01 00:00:00.0","2020-06-30 00:00:00.0","2020-05-26 00:00:00.0","2020-05-31 00:00:00.0","강동구"
"연계","XML-21494738","교육","건강/스포츠","안내중","월정기(클럽)-3부","유료","샘터배드민턴장","성인","http://online.igangdong.or.kr/lecture/programlist_detail.asp?s_item=138&itemid=2012","","","2020-06-01 00:00:00.0","2020-06-30 00:00:00.0","2020-05-26 00:00:00.0","2020-05-31 00:00:00.0","강동구"
"연계","XML-21494737","교육","건강/스포츠","안내중","월정기(클럽)-2부","유료","샘터배드민턴장","성인","http://online.igangdong.or.kr/lecture/programlist_detail.asp?s_item=138&itemid=2008","","","2020-06-01 00:00:00.0","2020-06-30 00:00:00.0","2020-05-26 00:00:00.0","2020-05-31 00:00:00.0","강동구"
"연계","XML-21494736","교육","건강/스포츠","안내중","월정기(클럽)-1부","유료","샘터배드민턴장","성인","http://online.igangdong.or.kr/lecture/programlist_detail.asp?s_item=138&itemid=2004","","","2020-06-01 00:00:00.0","2020-06-30 00:00:00.0","2020-05-26 00:00:00.0","2020-05-31 00:00:00.0","강동구"
"연계","XML-21494796","교육","건강/스포츠","안내중","오후 성인 20A초급","유료","명일테니스장","성인","http://online.igangdong.or.kr/lecture/programlist_detail.asp?s_item=174&itemid=2324","","","2020-07-01 00:00:00.0","2020-07-31 00:00:00.0","2020-06-25 00:00:00.0","2020-06-30 00:00:00.0","강동구"
"연계","XML-21494776","교육","건강/스포츠","안내중","오후 성인 21A중급","유료","명일테니스장","성인","http://online.igangdong.or.kr/lecture/programlist_detail.asp?s_item=174&itemid=2301","","","2020-07-01 00:00:00.0","2020-07-31 00:00:00.0","2020-06-25 00:00:00.0","2020-06-30 00:00:00.0","강동구"
"연계","XML-21494780","교육","건강/스포츠","안내중","오후 성인 20B중급","유료","명일테니스장","성인","http://online.igangdong.or.kr/lecture/programlist_detail.asp?s_item=174&itemid=2300","","","2020-07-01 00:00:00.0","2020-07-31 00:00:00.0","2020-06-25 00:00:00.0","2020-06-30 00:00:00.0","강동구"
"연계","XML-21494775","교육","건강/스포츠","안내중","오후 성인 19A중급","유료","명일테니스장","성인","http://online.igangdong.or.kr/lecture/programlist_detail.asp?s_item=174&itemid=2299","","","2020-07-01 00:00:00.0","2020-07-31 00:00:00.0","2020-06-25 00:00:00.0","2020-06-30 00:00:00.0","강동구"
"연계","XML-21494748","교육","건강/스포츠","안내중","오후 성인 21B초급","유료","명일테니스장","성인","http://online.igangdong.or.kr/lecture/programlist_detail.asp?s_item=174&itemid=2292","","","2020-07-01 00:00:00.0","2020-07-31 00:00:00.0","2020-06-25 00:00:00.0","2020-06-30 00:00:00.0","강동구"
"연계","XML-21494747","교육","건강/스포츠","안내중","오후 성인 19B초급","유료","명일테니스장","성인","http://online.igangdong.or.kr/lecture/programlist_detail.asp?s_item=174&itemid=2291","","","2020-07-01 00:00:00.0","2020-07-31 00:00:00.0","2020-06-25 00:00:00.0","2020-06-30 00:00:00.0","강동구"
"연계","XML-21494795","교육","건강/스포츠","안내중","주말 오후 (토) 21C중급","유료","명일테니스장","성인","http://online.igangdong.or.kr/lecture/programlist_detail.asp?s_item=173&itemid=2323","","","2020-07-01 00:00:00.0","2020-07-31 00:00:00.0","2020-06-25 00:00:00.0","2020-06-30 00:00:00.0","강동구"
"연계","XML-21494791","교육","건강/스포츠","안내중","주말 오후 (토) 19C초급","유료","명일테니스장","성인","http://online.igangdong.or.kr/lecture/programlist_detail.asp?s_item=173&itemid=2322","","","2020-07-01 00:00:00.0","2020-07-31 00:00:00.0","2020-06-25 00:00:00.0","2020-06-30 00:00:00.0","강동구"
"연계","XML-21494790","교육","건강/스포츠","안내중","주말 오후 (토) 15C중급","유료","명일테니스장","성인","http://online.igangdong.or.kr/lecture/programlist_detail.asp?s_item=173&itemid=2321","","","2020-07-01 00:00:00.0","2020-07-31 00:00:00.0","2020-06-25 00:00:00.0","2020-06-30 00:00:00.0","강동구"
"연계","XML-21494789","교육","건강/스포츠","안내중","주말 오후 (토) 20C초급","유료","명일테니스장","성인","http://online.igangdong.or.kr/lecture/programlist_detail.asp?s_item=173&itemid=2317","","","2020-07-01 00:00:00.0","2020-07-31 00:00:00.0","2020-06-25 00:00:00.0","2020-06-30 00:00:00.0","강동구"
"연계","XML-21494787","교육","건강/스포츠","안내중","주말 오후 (토) 18C초급","유료","명일테니스장","성인","http://online.igangdong.or.kr/lecture/programlist_detail.asp?s_item=173&itemid=2316","","","2020-07-01 00:00:00.0","2020-07-31 00:00:00.0","2020-06-25 00:00:00.0","2020-06-30 00:00:00.0","강동구"
"연계","XML-21494786","교육","건강/스포츠","안내중","주말 오후 (토) 14C초급","유료","명일테니스장","성인","http://online.igangdong.or.kr/lecture/programlist_detail.asp?s_item=173&itemid=2315","","","2020-07-01 00:00:00.0","2020-07-31 00:00:00.0","2020-06-25 00:00:00.0","2020-06-30 00:00:00.0","강동구"
"연계","XML-21494798","교육","건강/스포츠","안내중","오전 성인 11B기초반","유료","명일테니스장","성인","http://online.igangdong.or.kr/lecture/programlist_detail.asp?s_item=172&itemid=2484","","","2020-07-01 00:00:00.0","2020-07-31 00:00:00.0","2020-06-25 00:00:00.0","2020-06-30 00:00:00.0","강동구"
"연계","XML-21494797","교육","건강/스포츠","안내중","오전 성인 10A초중급","유료","명일테니스장","성인","http://online.igangdong.or.kr/lecture/programlist_detail.asp?s_item=172&itemid=2483","","","2020-07-01 00:00:00.0","2020-07-31 00:00:00.0","2020-06-25 00:00:00.0","2020-06-30 00:00:00.0","강동구"
"연계","XML-21494794","교육","건강/스포츠","안내중","오전 성인 09B초중급","유료","명일테니스장","성인","http://online.igangdong.or.kr/lecture/programlist_detail.asp?s_item=172&itemid=2482","","","2020-07-01 00:00:00.0","2020-07-31 00:00:00.0","2020-06-25 00:00:00.0","2020-06-30 00:00:00.0","강동구"
"연계","XML-21494793","교육","건강/스포츠","안내중","오전 성인 09A기초반","유료","명일테니스장","성인","http://online.igangdong.or.kr/lecture/programlist_detail.asp?s_item=172&itemid=2481","","","2020-07-01 00:00:00.0","2020-07-31 00:00:00.0","2020-06-25 00:00:00.0","2020-06-30 00:00:00.0","강동구"
"연계","XML-21494792","교육","건강/스포츠","안내중","오전 성인 07B초중급","유료","명일테니스장","성인","http://online.igangdong.or.kr/lecture/programlist_detail.asp?s_item=172&itemid=2480","","","2020-07-01 00:00:00.0","2020-07-31 00:00:00.0","2020-06-25 00:00:00.0","2020-06-30 00:00:00.0","강동구"
"연계","XML-21494788","교육","건강/스포츠","안내중","오전 성인 06A초중급","유료","명일테니스장","성인","http://online.igangdong.or.kr/lecture/programlist_detail.asp?s_item=172&itemid=2479","","","2020-07-01 00:00:00.0","2020-07-31 00:00:00.0","2020-06-25 00:00:00.0","2020-06-30 00:00:00.0","강동구"
"연계","XML-21494779","교육","건강/스포츠","안내중","오전 성인 11A중급","유료","명일테니스장","성인","http://online.igangdong.or.kr/lecture/programlist_detail.asp?s_item=172&itemid=2298","","","2020-07-01 00:00:00.0","2020-07-31 00:00:00.0","2020-06-25 00:00:00.0","2020-06-30 00:00:00.0","강동구"
"연계","XML-21494774","교육","건강/스포츠","안내중","오전 성인 10B중급","유료","명일테니스장","성인","http://online.igangdong.or.kr/lecture/programlist_detail.asp?s_item=172&itemid=2297","","","2020-07-01 00:00:00.0","2020-07-31 00:00:00.0","2020-06-25 00:00:00.0","2020-06-30 00:00:00.0","강동구"
"연계","XML-21494778","교육","건강/스포츠","안내중","오전 성인 07A중급","유료","명일테니스장","성인","http://online.igangdong.or.kr/lecture/programlist_detail.asp?s_item=172&itemid=2294","","","2020-07-01 00:00:00.0","2020-07-31 00:00:00.0","2020-06-25 00:00:00.0","2020-06-30 00:00:00.0","강동구"
"연계","XML-21494749","교육","건강/스포츠","안내중","오전 성인 06B중급","유료","명일테니스장","성인","http://online.igangdong.or.kr/lecture/programlist_detail.asp?s_item=172&itemid=2293","","","2020-07-01 00:00:00.0","2020-07-31 00:00:00.0","2020-06-25 00:00:00.0","2020-06-30 00:00:00.0","강동구"
"연계","XML-21494785","교육","건강/스포츠","안내중","어린이 주말 17C 고학년","유료","명일테니스장","어린이","http://online.igangdong.or.kr/lecture/programlist_detail.asp?s_item=171&itemid=2311","","","2020-07-01 00:00:00.0","2020-07-31 00:00:00.0","2020-06-25 00:00:00.0","2020-06-30 00:00:00.0","강동구"
"연계","XML-21494784","교육","건강/스포츠","안내중","어린이 주말 16C 저학년","유료","명일테니스장","어린이","http://online.igangdong.or.kr/lecture/programlist_detail.asp?s_item=171&itemid=2309","","","2020-07-01 00:00:00.0","2020-07-31 00:00:00.0","2020-06-25 00:00:00.0","2020-06-30 00:00:00.0","강동구"
"연계","XML-21494783","교육","건강/스포츠","안내중","어린이 평일 17A초급","유료","명일테니스장","어린이","http://online.igangdong.or.kr/lecture/programlist_detail.asp?s_item=171&itemid=2306","","","2020-07-01 00:00:00.0","2020-07-31 00:00:00.0","2020-06-25 00:00:00.0","2020-06-30 00:00:00.0","강동구"
"연계","XML-21494782","교육","건강/스포츠","안내중","어린이 평일 16B 초등 저학년초급","유료","명일테니스장","어린이","http://online.igangdong.or.kr/lecture/programlist_detail.asp?s_item=171&itemid=2305","","","2020-07-01 00:00:00.0","2020-07-31 00:00:00.0","2020-06-25 00:00:00.0","2020-06-30 00:00:00.0","강동구"
"연계","XML-21494777","교육","건강/스포츠","안내중","어린이 평일 17B 초등 고학년초급","유료","명일테니스장","어린이","http://online.igangdong.or.kr/lecture/programlist_detail.asp?s_item=171&itemid=2303","","","2020-07-01 00:00:00.0","2020-07-31 00:00:00.0","2020-06-25 00:00:00.0","2020-06-30 00:00:00.0","강동구"
"연계","XML-21494781","교육","건강/스포츠","안내중","어린이 평일 16A초급","유료","명일테니스장","어린이","http://online.igangdong.or.kr/lecture/programlist_detail.asp?s_item=171&itemid=2302","","","2020-07-01 00:00:00.0","2020-07-31 00:00:00.0","2020-06-25 00:00:00.0","2020-06-30 00:00:00.0","강동구"