"키","특구 명칭","관할시군구","주소","행정 시","행정 구","행정 동","지정고시일","면적(㎢)","연락처","관련홈페이지","홈페이지 주소","시설현황","위치도"
"BE_IW02-0001","이태원관광특구","서울특별시 용산구","용산구 이태원 1동 한남 2동 일원","서울특별시","용산구","이태원1동 한남2동","1997-09-29","0.38000","02-2199-7254","용산구 문화관광","http://munha.yongsan.go.kr/site/ct/index.jsp"," 미술관  세계음식거리 해밀턴호텔 앤티크가구거리 등 "," http://data.seoul.go.kr/contents/home/yongsan_stsr.png"
"BE_IW02-0002","명동남대문북창동다동무교동 관광특구","서울특별시 중구","중구 소공동 회현동 명동 무교동 다동 남대문로1가 삼각동 수하동 장교동 을지로1가 을지로2가 태평로1가 태평로2가 일부","서울특별시","중구","소공동 회현동 명동 무교동 다동 남대문로1가 삼각동 수하동 장교동 을지로1가 을지로2가 태평로1가 태평로2가","2000-03-30 (2012-12-27)","0.87000","02-3396-4622","중구 문화관광","http://www.junggu.seoul.kr/tour/"," 남대문 시장 면세점 한옥마을 N서울타워 명동상가 등  "," http://data.seoul.go.kr/contents/home/junggu_stsr.png"
"BE_IW02-0003","동대문패션타운 관광특구","서울특별시 중구","중구 광희동 을지로 3~5동 신당 1동 일원","서울특별시","중구","광희동 을지로3 을지로4동 을지로5동 신당1동","2002-05-23","0.58000","02-3396-4622","동대문패션타운관광특구","http://www.dft.co.kr/","동대문 역사문화공원 동대문디자인플라자 청계천 충무아트센터 복합쇼핑몰과 의류도매상가 재래시장 "," http://data.seoul.go.kr/contents/home/dft_stsr.png"
"BE_IW02-0004","종로청계 관광특구","서울특별시 종로구","서린동 전역 관철동 전역 관수동 전역 장사동 전역 예지동 전역 신문로1가 일부 종로1~6가 일부 창신동 일부","서울특별시","종로구","서린동 관철동 관수동 장사동 예지동","2006-03-30","0.54000","02-2148-1862","종로청계관광특구","http://www.jongno.go.kr/chTownMain.do"," 고궁 미술관 박물관 창덕궁과 종묘 등 문화 시설 및 세계문화유산  등 "," http://data.seoul.go.kr/contents/home/jongno_stsr.png"
"BE_IW02-0005","잠실관광특구","서울특별시 송파구","송파구 잠실동 신천동 석촌동 송파동 방이동 일부 (롯데월드~석촌호수~방이맛골~올림픽공원)","서울특별시","송파구","잠실동 신천동 석촌동 송파동 방이동","2012-03-15","2.31000","02-2147-2107","송파구 문화관광","http://culture.songpa.go.kr","  롯데월드타워 석촌호수 올림픽공원 카페 골목 한성백제문화 박물관 몽촌토성 등 "," http://data.seoul.go.kr/contents/home/songpa_stsr.png"
"BE_IW02-0006","강남마이스 관광특구","서울특별시 강남구","강남구 삼성동 무역센터 일대 (영동대로 511 513 517 테헤란로 517 521 봉은사로 511 524)","서울특별시","강남구","삼성동","2014-12-18","0.19000","02-3423-5535","강남관광정보센터","http://tour.gangnam.go.kr/ko/prcenter/coex/","코엑스전시컨벤션센터 아쿠아리움 도심공항터미널 등 "," http://data.seoul.go.kr/contents/home/gangnam_stsr.png"