"구간 관리번호","구간구분","어권구분","구간 명","구간 코스요약","소요 시간","구간 길이","해발 정보","난이도","구간 정보","등록일","최종수정일"
"1","A001","KOR","백악구간","창의문 ~ 혜화문","약 3시간","4.7km","","5","<p class='0' style='line-height: 1.5; mso-pagination: none; mso-padding-alt: 0pt 0pt 0pt 0pt;'><font size='2'><strong>구간 : 창의문~혜화문<br>거리 : 4.7km <br>소요시간 : 약 3시간</strong></font></p><p style='line-height: 1.5;'>&nbsp;</p><p style='line-height: 1.5;'>창의문에서 백악을 넘어 혜화문에 이르는 구간이다. 백악(북악산 342m)은 옛 서울의 주산으로 내사산 중 가장 높다. 공극산(拱極山) 면악(面岳)이라고도 하였으며 산세가 ‘반쯤 핀 모란꽃’에 비유될 만큼 아름답다. 한양도성은 백악을 기점으로 축조되었다. 1968년 1?21 사태 이후 40년 가까이 출입이 제한되다가 2007년부터 시민에게 개방되었다.&nbsp;</p><p class='0' style='mso-pagination: none; mso-padding-alt: 0pt 0pt 0pt 0pt;'><font size='2'><font size='2'><font size='2'><br><font size='2'>■</font>&nbsp;창의문-창의문 안내소-백악 돌고래 쉼터-백악 쉼터-백악마루-1?21 사태 소나무-청운대-암문-백악 곡성-백악 촛대바위-숙정문-말바위 안내소</font></font></font></p><p>&nbsp; &nbsp; &nbsp; &nbsp; &nbsp; &nbsp; &nbsp; &nbsp; &nbsp; &nbsp; &nbsp; &nbsp; -우수조망명소-와룡공원-암문-서울과학고등학교-경신고등학교-혜성교회-두산빌라-혜화동 전시안내센터(옛 서울시장공관)-혜화문&nbsp;</p> <br> <font size='2'>■</font>&nbsp;탐방시간<br> <table summary='구분 겨울(4개월) 봄가을(4개월) 여름(4개월)'> 	<tbody> 		<tr> 			<td style='width: 199px; height: 85px; text-align: center;' bgcolor='#eeeeee' rowspan='2'>구 분</td> 			<td style='width: 253px; height: 42px; text-align: center;' bgcolor='#eeeeee'>겨울(4개월)</td> 			<td style='width: 253px; height: 42px; text-align: center;' bgcolor='#eeeeee'>봄?가을(4개월)</td> 			<td style='width: 253px; height: 42px; text-align: center;' bgcolor='#eeeeee'>여름(4개월)</td> 		</tr> 		<tr> 			<td style='width: 253px; height: 42px; text-align: center;' bgcolor='#eeeeee'>(11~2월)</td> 			<td style='width: 253px; height: 42px; text-align: center;' bgcolor='#eeeeee'>(3~4월/9~10월)</td> 			<td style='width: 253px; height: 42px; text-align: center;' bgcolor='#eeeeee'>(5~8월)</td> 		</tr> 		<tr> 			<td style='width: 199px; height: 65px; text-align: center;' bgcolor='#f8f8f8'>개방시간</td> 			<td style='width: 253px; height: 65px; text-align: center;'>09:00~17:00<br> 			(15시까지 입산)</td> 			<td style='width: 253px; height: 65px; text-align: center;'>07:00~18:00<br> 			(16시까지 입산)</td> 			<td style='width: 253px; height: 65px; text-align: center;'>07:00~19:00<br> 			(17시까지 입산)</td> 		</tr> 	</tbody> </table>  <br><font size='2'>■</font>&nbsp;탐방 절차 간소화 → 신분확인 절차 생략<br> <br><font size='2'>■</font>&nbsp;입산휴식일 (매주 월) 폐지 (365일 연중 무휴)<br>","2013-12-25 00:00:00.0","2020-04-23 10:43:45.0"
"2","A001","ENG","백악구간_e","창의문~혜화문 구간","","4.7km","","5","","2013-12-25 00:00:00.0","2013-12-31 00:00:00.0"
"3","A002","KOR","낙산구간","혜화문 ~ 흥인지문","약 1시간","2.1km","","2","<p class='0' x-x-style='line-height: 1.5; mso-pagination: none; mso-padding-alt: 0pt 0pt 0pt 0pt;'><font size='2'><strong>구간 : 혜화문~흥인지문<br>거리 : 2.1km<br>소요시간 : 약 1시간</strong></font></p><p align='justify' class='0' x-x-style='line-height: 1.5; mso-pagination: none; mso-padding-alt: 0pt 0pt 0pt 0pt;'><font size='2'><strong></strong></font>&nbsp;</p><p align='justify' class='0' x-x-style='line-height: 1.5; mso-pagination: none; mso-padding-alt: 0pt 0pt 0pt 0pt;'><font size='2'>혜화문에서 낙산을 지나 흥인지문까지 이어지는 구간이다. 낙산(124m)은 서울의 좌청룡에 해당하는 산으로 내사산 중 가장 낮다. 생긴 모양이 낙타 등처럼 생겨 낙타산 타락산이라고 부르기도 하였다. 낙산 구간은 경사가 완만하여 산책하듯 걷기에 적당하다. 특히 가톨릭대학 뒤편 길을 걷다보면 축조 시기별로 성돌의 모양이 어떻게 다른지를 볼 수 있다.</font></p><p class='0' x-x-style='mso-pagination: none; mso-padding-alt: 0pt 0pt 0pt 0pt;'><font size='2'><br>■&nbsp;24시간 개방</font><font size='2'><br></font></p><p>&nbsp;</p><p><font size='2'>■</font>&nbsp;장수마을과 이화마을을 지날 때에는 주민들에게 피해가 가지 않도록 주의하는 배려가 필요하다.&nbsp;</p><p>&nbsp;</p><p><font size='2'>■</font>&nbsp;혜화문-한성대입구역 4번출구- 나무계단-가톨릭대학 뒷길-장수마을-낙산공원 놀이마당-낙산정상-이화마을-한양도성박물관(서울디자인지원센터) -흥인지문공원-흥인지문</p>","2013-12-25 00:00:00.0","2019-11-07 16:34:24.0"
"4","A002","ENG","낙산구간_e","혜화문~흥인지문","","2.1km","","2","","2013-12-25 00:00:00.0","2013-12-31 00:00:00.0"
"5","A003","KOR","흥인지문구간","흥인지문 ~ 장충체육관","약 1시간","1.8km","","1","<p class='0' style='line-height: 1.5; mso-pagination: none; mso-padding-alt: 0pt 0pt 0pt 0pt;'><font size='2'><strong>구간 : 흥인지문 ~ 장충체육관<br>거리 : 1.8km<br>소요시간 : 약 1시간</strong></font></p><p align='justify' class='0' style='line-height: 1.5; mso-pagination: none; mso-padding-alt: 0pt 0pt 0pt 0pt;'><font size='2'><br></font></p><p align='justify' class='0' style='line-height: 1.5; mso-pagination: none; mso-padding-alt: 0pt 0pt 0pt 0pt;'><font size='2'>흥인지문에서 광희문을 지나 장충체육관까지 이어지는 구간이다. 흥인지문 일대는 도성 안에서 가장 지대가 낮아 성 안의 물이 이곳으로 흘러들어 </font></p><p align='justify' class='0' style='line-height: 1.5; mso-pagination: none; mso-padding-alt: 0pt 0pt 0pt 0pt;'><font size='2'>수문(오간수문?이간수문)으로 빠져 나갔고 하도감? 염초청?훈련원 등의 군사시설도 밀집했다. 대한제국 시기에는 전차개설로 일제강점기에는 도로 건설과 경성운동장 건설 등으로 해방 후에는 도로 확장과 주택 건설 등으로 인해 흥인지문에서 장충동에 이르는 성벽 대부분이 철거?훼손되었다. 현재 이간수문은 원 위치에 정비되어 있고 하도감 유구는 동대문역사문화공원 안으로 이전되어 전시 중이다. 주변의 동대문디자인플라자?동대문시장?평화시장?방산시장 등에서는 쇼핑도 즐길 수 있다. </font></p><br><p class='0' style='mso-pagination: none; mso-padding-alt: 0pt 0pt 0pt 0pt;'><font size='2'>■&nbsp;24시간 개방</font></p><p class='0' style='mso-pagination: none; mso-padding-alt: 0pt 0pt 0pt 0pt;'><br><font size='2'>■</font>&nbsp;광희문에서 장충체육관 방면으로 가는 길은 민가 지역이니 조용히 걷는 배려가 필요하다.</p><p><br><font size='2'>■</font>&nbsp;흥인지문-오간수문 터-동대문역사문화공원(이간수문)-동대문역사관-광희문-백구 컴퓨터 크리닝-천주교 신당동교회-장충체육관</p>","2013-12-25 00:00:00.0","2019-11-07 16:30:09.0"
"6","A003","ENG","흥인지문구간_e","흥인지문~장충동 동호로","","","","1","","2013-12-25 00:00:00.0","2013-12-25 00:00:00.0"
"7","A004","KOR","남산(목멱산)구간","장충체육관 ~ 백범광장","3시간","4.2km","","3","<p class='0' x-style='line-height: 1.5; mso-pagination: none; mso-padding-alt: 0pt 0pt 0pt 0pt;'><font size='2'><strong>구간 : 장충체육관 ~ 백범광장<br>거리 : 4.2km<br>소요시간 : 약 3시간</strong></font></p><p align='justify' class='0' x-style='line-height: 1.5; mso-pagination: none; mso-padding-alt: 0pt 0pt 0pt 0pt;'><font size='2'><br></font></p><p align='justify' class='0' x-style='line-height: 1.5; mso-pagination: none; mso-padding-alt: 0pt 0pt 0pt 0pt;'><font size='2'>장충체육관 뒷길에서 남산공원까지 이어지는 구간이다. 남산(목멱산 해발 270m)은 서울의 안산(案山)에 해당하여 조선 초기부터 국태민안(國泰民安)을 비는 국사당을 이 산에 두었다. 또 정상에는 변방의 변란을 알리는 봉수대를 설치하여 궁궐에서 직접 살필 수 있게 하였다. 한강 남북을 포괄하는 현재 남산은 서울의 행정구역상 중심부에 해당하며 정상 부근에는 서울의 지리적 중심임을 표시하는 ‘서울 중심점’이 설치되어 있다. 1921년부터 1925년까지 일제가 남산 중턱에 조선신궁을 지으면서 주변 성벽을 대부분 파괴했으나 1970년대 이후의 성곽 보존 ? 정비 사업과 1990년대 중반 남산 제 모습 찾기 사업을 통해 현재는 옛 모습을 상당 부분 회복하였다. </font></p><p class='0' x-style='mso-pagination: none; mso-padding-alt: 0pt 0pt 0pt 0pt;'><font size='2'><br>■&nbsp;남산-24시간 개방 (신라호텔~반얀트리클럽&amp;스파서울 안쪽 구간 09:00~18:00)</font></p><p class='0' x-style='mso-pagination: none; mso-padding-alt: 0pt 0pt 0pt 0pt;'><br><font size='2'>■</font>&nbsp;장충체육관 뒷길은 주택 지역이므로 주민들에게 피해가 가지 않도록 배려가 필요하다.</p><p><br><font size='2'>■</font>&nbsp;장충체육관-장충체육관 뒷길(도성 바깥?안쪽 길)-우수조망명소(용산구 방향)-반얀트리클럽&amp;스파서울-국립극장-나무계단길-남산공원 이용자 안내센터-N서울타워 -남산 팔각정(목멱산 봉수대 터)-남산 케이블카 승강장-잠두봉 포토아일랜드-한양도성 유적전시관(건립중)-안중근 의사 기념관-백범광장</p>","2013-12-25 00:00:00.0","2019-11-07 16:30:43.0"
"8","A004","ENG","남산(목멱산)구간_e","장충동~아동광장(숭례문)","","","","3","","2013-12-25 00:00:00.0","2014-01-21 00:00:00.0"
"9","A005","KOR","숭례문구간","백범광장 ~ 돈의문 터","약 1시간","1.8km","","1","<p class='0' x-style='line-height: 1.5; mso-pagination: none; mso-padding-alt: 0pt 0pt 0pt 0pt;'><font size='2'><strong><span x-style='font-family: 돋움dotum;'>구간 : 백범광장 ~ 돈의문 터</span><br><span x-style='font-family: 돋움dotum;'>거리 : 1.8km</span><br><span x-style='font-family: 돋움dotum;'>소요시간 : 약 1시간</span></strong></font></p><br><p align='justify' class='0' x-style='line-height: 1.5; mso-pagination: none; mso-padding-alt: 0pt 0pt 0pt 0pt;'><font size='2'><span x-style='font-family: 돋움dotum;'>백범광장에서 숭례문을 지나 돈의문 터까지 이어지는 구간이다. 한양도성의 정문인 숭례문은 한강과 도성을 최단거리로 잇는 문이어서 사람과 물자의 통행도 가장 많았다. 상업이 발달한 조선 후기에는 문 밖에 칠패시장 문 안 선혜청 창고 앞에 남대문 조시(朝市)가 만들어졌다. 이중 칠패시장은 종루 이현(梨峴)의 시장과 함께 ‘도성삼대시(都城三大市)’로 꼽혔으며 남대문 조시는&nbsp;오늘날의 남대문시장으로 이어졌다. 서구(西歐) 각국과 통상조약을 체결하고 서울을 개방한 이후에는 남대문 인근의 정동에 각국 공사관(公使館)과 외교관 사택 선교사들이 세운 교회와 학교들이 들어섰다. 1899년 전차가 개통됨에 따라 숭례문은 더 이상 문의 구실을 못하게 되었고 1907년에는 교통 불편을 해소한다는&nbsp;명목으로 숭례문 양쪽 성벽이 철거되었다. 이후에도 남대문로 주변에 대형 건축물이 들어설 때마다 성벽이 철거되어 숭례문 주변에서는 옛 성벽을 찾아보기 어렵다. 현재 숭례문 구간에서 한양도성의 흔적을 발견할 수 있는 곳은&nbsp;세 군데 있다.&nbsp;밀레니엄 서울힐튼과 SK남산빌딩 뒤쪽의 성벽 대한상공회의소에서&nbsp;올리브 타워로&nbsp;이어지는 길가에 성벽 일부가 담장처럼 남아있으며 창덕여자중학교 담장 아랫부분에서 50m 정도의 성벽을 볼 수 있다.</span></font></p><br><p class='0' x-style='mso-pagination: none; mso-padding-alt: 0pt 0pt 0pt 0pt;'><font size='2'><br><span x-style='font-family: 돋움dotum;'>■&nbsp;</span></font><font size='2'><span x-style='font-family: 돋움dotum;'>숭례문 - 연중상설(월요일 휴무) 관람시간 09:00~18:00 여름철(6월~8월) 09:00~18:30 겨울철(11월~2월) 09:00~17:30</span><br><br></font></p><p><span x-style='font-family: 돋움dotum;'><font size='2'>■</font>&nbsp;숭례문 구간은 성곽의 자취를 찾기 쉽지 않으므로 순성길에 대한 사전학습이 필요하다.&nbsp;</span><br><br><span x-style='font-family: 돋움dotum;'><font size='2'>■</font>&nbsp;백범광장-숭례문-남지 터-대한?서울상공회의소-소의문 터-배재학당동관?배재공원-러시아대사관-창덕여중-돈의문 터(돈의문박물관마을)</span></p><p><span x-style='font-family: 돋움dotum;'> (점선으로 된 이화여자고등학교 내부 순성길은 해설사 프로그램을 통해서만 진입이 가능하다.)</span>&nbsp;</p>","2013-12-25 00:00:00.0","2019-11-07 16:31:40.0"
"10","A005","ENG","숭례문구간_e","숭례문 ~ 돈의문터","","","","1","","2013-12-25 00:00:00.0","2013-12-25 00:00:00.0"
"11","A006","KOR","인왕산구간","돈의문 터 ~ 창의문","약 2시간 30분","4.0km","","5","<p class='0' style='line-height: 1.5; mso-pagination: none; mso-padding-alt: 0pt 0pt 0pt 0pt;'><font size='2'><strong>구간 : 돈의문 터 ~ 창의문<br>거리 : 4km<br>소요시간 : 약 2시간 30분</strong></font></p><p align='justify' class='0' style='line-height: 1.5; mso-pagination: none; mso-padding-alt: 0pt 0pt 0pt 0pt;'><font size='2'><br></font></p><p align='justify' class='0' style='line-height: 1.5; mso-pagination: none; mso-padding-alt: 0pt 0pt 0pt 0pt;'><font size='2'>돈의문 터에서 시작해 인왕산을 넘어 윤동주 시인의 언덕까지 이어지는 구간이다. 해발 339m인 인왕산은 풍수상 우백호(右白虎)에 해당한다. 거대한 바위들이 노출되어 있는 바위산으로 치마바위 선바위 기차바위 등 기암괴석이 많다. 인왕(仁王)은 불교식 명칭으로 무학대사가 이 산을 주산으로 삼으면 불교가 융성할 것이라고 하였다는 이야기가 전한다. 1968년 1?21 사태 이후 민간인 출입이 통제되다가 1993년 개방되었다.</font></p><br><p class='0' style='mso-pagination: none; mso-padding-alt: 0pt 0pt 0pt 0pt;'><font size='2'><br>■&nbsp;</font><font size='2'>24시간 개방<br></font></p><p><font size='2'>■</font>&nbsp;인왕산은 바위 구간이 많아서 겨울철 등산 시에 주의해야 한다. (인왕산으로 진입하면 화장실이 없으므로 출발 전 미리 다녀오는 것이 좋다.)<br><br><font size='2'>■</font>&nbsp;돈의문 터(돈의문박물관마을)-경교장-월암공원-홍파동 홍난파 가옥-편의점(구 옥경이식품)-인왕산 순성 안내쉼터-인왕산 곡성-인왕산 범바위-인왕산 정상-윤동주 시인의 언덕-창의문</p>","2013-12-25 00:00:00.0","2019-11-07 17:04:45.0"
"12","A006","ENG","인왕산구간_e","돈의문터~창의문","","","","5","","2013-12-25 00:00:00.0","2014-01-03 00:00:00.0"
"13","A007","KOR","전체구간","","","","","","","2013-12-25 00:00:00.0","2013-12-25 00:00:00.0"
"14","A007","ENG","전체구간_e","","","","","","","2013-12-25 00:00:00.0","2013-12-25 00:00:00.0"